<svg xmlns="http://www.w3.org/2000/svg" width="56" height="56" id="circle-warning-medium" data-supported-dps="56x56">
  <circle cx="28" cy="28" r="21" fill="#e6f7ff"/>
  <path d="M28 7A21 21 0 117 28 21 21 0 0128 7m0-3a24 24 0 1024 24A24 24 0 0028 4z" fill="#006097"/>
  <circle cx="28" cy="39" r="2" fill="#0091ca"/>
  <path fill="#0091ca" d="M30 16h-4v11l1 7h2l1-7V16z"/>
</svg>
